{
    "name": "MainActions",
    "maps": [
        {
            "name": "In-Game Control",
            "id": "5b80b579-bcd7-4a30-b008-c0d573df7687",
            "actions": [
                {
                    "name": "Direction",
                    "type": "Value",
                    "id": "26c71b2c-cc13-4c5e-acba-8e51e6c972e7",
                    "expectedControlType": "Vector2",
                    "processors": "",
                    "interactions": ""
                },
                {
                    "name": "Shoot",
                    "type": "Button",
                    "id": "6ddb07a9-55a9-4bcf-a7cd-ff0ac8e94e79",
                    "expectedControlType": "Button",
                    "processors": "",
                    "interactions": ""
                }
            ],
            "bindings": [
                {
                    "name": "2D Vector",
                    "id": "849e8096-6a39-4391-967d-f6c29953a1c9",
                    "path": "2DVector(mode=1)",
                    "interactions": "",
                    "processors": "",
                    "groups": "",
                    "action": "Direction",
                    "isComposite": true,
                    "isPartOfComposite": false
                },
                {
                    "name": "up",
                    "id": "16124f8a-82ae-4e1b-bc9d-5ebb4eddc821",
                    "path": "<Keyboard>/w",
                    "interactions": "",
                    "processors": "",
                    "groups": "",
                    "action": "Direction",
                    "isComposite": false,
                    "isPartOfComposite": true
                },
                {
                    "name": "down",
                    "id": "422f9110-1f0f-485b-a25f-6ba0baec8187",
                    "path": "<Keyboard>/s",
                    "interactions": "",
                    "processors": "",
                    "groups": "",
                    "action": "Direction",
                    "isComposite": false,
                    "isPartOfComposite": true
                },
                {
                    "name": "left",
                    "id": "0a266fb0-8f8a-4021-8f7d-b9bbc4c2824d",
                    "path": "<Keyboard>/a",
                    "interactions": "",
                    "processors": "",
                    "groups": "",
                    "action": "Direction",
                    "isComposite": false,
                    "isPartOfComposite": true
                },
                {
                    "name": "right",
                    "id": "c5e9e955-a7d3-448a-a242-607e96ed1451",
                    "path": "<Keyboard>/d",
                    "interactions": "",
                    "processors": "",
                    "groups": "",
                    "action": "Direction",
                    "isComposite": false,
                    "isPartOfComposite": true
                },
                {
                    "name": "2D Vector",
                    "id": "5774a804-2b98-4bfe-a43b-3b576b41416f",
                    "path": "2DVector(mode=1)",
                    "interactions": "",
                    "processors": "",
                    "groups": "",
                    "action": "Direction",
                    "isComposite": true,
                    "isPartOfComposite": false
                },
                {
                    "name": "up",
                    "id": "ee9fbbd0-1ed9-4d1f-8c10-2bbda1ae3396",
                    "path": "<Keyboard>/upArrow",
                    "interactions": "",
                    "processors": "",
                    "groups": "",
                    "action": "Direction",
                    "isComposite": false,
                    "isPartOfComposite": true
                },
                {
                    "name": "down",
                    "id": "f424d7c9-b305-4466-b4c8-7370468876ea",
                    "path": "<Keyboard>/downArrow",
                    "interactions": "",
                    "processors": "",
                    "groups": "",
                    "action": "Direction",
                    "isComposite": false,
                    "isPartOfComposite": true
                },
                {
                    "name": "left",
                    "id": "089b1701-3005-4a0f-baad-db636f9ee49d",
                    "path": "<Keyboard>/leftArrow",
                    "interactions": "",
                    "processors": "",
                    "groups": "",
                    "action": "Direction",
                    "isComposite": false,
                    "isPartOfComposite": true
                },
                {
                    "name": "right",
                    "id": "91209a01-d950-4258-8a7d-6dfaaca37c88",
                    "path": "<Keyboard>/rightArrow",
                    "interactions": "",
                    "processors": "",
                    "groups": "",
                    "action": "Direction",
                    "isComposite": false,
                    "isPartOfComposite": true
                },
                {
                    "name": "",
                    "id": "f1de1ffc-cfdc-482e-b904-4dc13e9098f9",
                    "path": "<Gamepad>/dpad",
                    "interactions": "",
                    "processors": "",
                    "groups": "",
                    "action": "Direction",
                    "isComposite": false,
                    "isPartOfComposite": false
                },
                {
                    "name": "",
                    "id": "c7bf1e56-8a68-43e0-8774-a95a6a16dcd0",
                    "path": "<Gamepad>/leftStick",
                    "interactions": "",
                    "processors": "",
                    "groups": "",
                    "action": "Direction",
                    "isComposite": false,
                    "isPartOfComposite": false
                },
                {
                    "name": "",
                    "id": "535abaea-1e40-46a8-a346-9e028fbd95a4",
                    "path": "<Keyboard>/space",
                    "interactions": "",
                    "processors": "",
                    "groups": "",
                    "action": "Shoot",
                    "isComposite": false,
                    "isPartOfComposite": false
                },
                {
                    "name": "",
                    "id": "58edb46d-0a9f-4da6-a7ed-4972db4ff053",
                    "path": "<Gamepad>/buttonSouth",
                    "interactions": "",
                    "processors": "",
                    "groups": "",
                    "action": "Shoot",
                    "isComposite": false,
                    "isPartOfComposite": false
                }
            ]
        },
        {
            "name": "Menu Control",
            "id": "98775488-64bf-4999-a731-4385963ca3d0",
            "actions": [
                {
                    "name": "Play",
                    "type": "Button",
                    "id": "98314d4b-feaf-4d42-aa5c-deab22dcd926",
                    "expectedControlType": "Button",
                    "processors": "",
                    "interactions": ""
                },
                {
                    "name": "PlayEndless",
                    "type": "Button",
                    "id": "a68c35ff-70c8-468d-86d2-066f4e22d37a",
                    "expectedControlType": "Button",
                    "processors": "",
                    "interactions": ""
                }
            ],
            "bindings": [
                {
                    "name": "",
                    "id": "cbcc393f-5e20-457e-ad93-d22b5f224027",
                    "path": "<Keyboard>/space",
                    "interactions": "",
                    "processors": "",
                    "groups": "",
                    "action": "Play",
                    "isComposite": false,
                    "isPartOfComposite": false
                },
                {
                    "name": "",
                    "id": "a4b69917-1197-416e-85a9-c148937a02c3",
                    "path": "<Gamepad>/buttonSouth",
                    "interactions": "",
                    "processors": "",
                    "groups": "",
                    "action": "Play",
                    "isComposite": false,
                    "isPartOfComposite": false
                },
                {
                    "name": "",
                    "id": "070b412a-bc36-4720-a8ec-2b71bef73582",
                    "path": "<Keyboard>/enter",
                    "interactions": "",
                    "processors": "",
                    "groups": "",
                    "action": "PlayEndless",
                    "isComposite": false,
                    "isPartOfComposite": false
                },
                {
                    "name": "",
                    "id": "9f10dc80-f243-44ca-8467-7f71aa34915b",
                    "path": "<Gamepad>/buttonWest",
                    "interactions": "",
                    "processors": "",
                    "groups": "",
                    "action": "PlayEndless",
                    "isComposite": false,
                    "isPartOfComposite": false
                }
            ]
        }
    ],
    "controlSchemes": []
}